\beamer@sectionintoc {1}{Introduction}{2}{0}{1}
\beamer@sectionintoc {2}{Project Motivation}{3}{0}{2}
\beamer@sectionintoc {3}{Key Features}{4}{0}{3}
\beamer@sectionintoc {4}{Technologies Used}{5}{0}{4}
\beamer@sectionintoc {5}{Challenges}{6}{0}{5}
\beamer@sectionintoc {6}{Our Learnings So Far}{7}{0}{6}
\beamer@sectionintoc {7}{Proud Achievements}{8}{0}{7}
\beamer@sectionintoc {8}{Project Timeline}{9}{0}{8}
\beamer@sectionintoc {9}{File Structure Overview}{10}{0}{9}
\beamer@sectionintoc {10}{References}{11}{0}{10}
